{
    "fulfillmentMessages": [
        {
            "platform": "PLATFORM_UNSPECIFIED",
            "text": {
                "text": [
                    "Hi!",
                    "This is a response from the mock server"
                ]
            },
            "message": "text"
        },
        {
            "platform": "PLATFORM_UNSPECIFIED",
            "text": {
                "text": [
                    "Is there anything else I can help you with?"
                ]
            },
            "message": "text"
        }
    ],
    "outputContexts": [
        {
            "name": "projects/qbr-rfvmqf/agent/sessions/praveen@ibs.xcom/contexts/login_issue-followup",
            "lifespanCount": 2,
            "parameters": {
                "fields": {
                    "registeredEmail.original": {
                        "stringValue": "",
                        "kind": "stringValue"
                    },
                    "registeredEmail": {
                        "stringValue": "",
                        "kind": "stringValue"
                    }
                }
            }
        }
    ],
    "queryText": "unable to login",
    "speechRecognitionConfidence": 0,
    "action": "input.login_issue",
    "parameters": {
        "fields": {
            "registeredEmail": {
                "stringValue": "",
                "kind": "stringValue"
            }
        }
    },
    "allRequiredParamsPresent": true,
    "fulfillmentText": "",
    "webhookSource": "",
    "webhookPayload": null,
    "intent": {
        "inputContextNames": [
        ],
        "events": [
        ],
        "trainingPhrases": [
        ],
        "outputContexts": [
        ],
        "parameters": [
        ],
        "messages": [
        ],
        "defaultResponsePlatforms": [
        ],
        "followupIntentInfo": [
        ],
        "name": "projects/qbr-rfvmqf/agent/intents/718f3afc-8390-409b-8ed1-19e3493e98ff",
        "displayName": "Login_Issue",
        "priority": 0,
        "isFallback": false,
        "webhookState": "WEBHOOK_STATE_UNSPECIFIED",
        "action": "",
        "resetContexts": false,
        "rootFollowupIntentName": "",
        "parentFollowupIntentName": "",
        "mlDisabled": false
    },
    "intentDetectionConfidence": 1,
    "diagnosticInfo": {
        "fields": {
            "webhook_latency_ms": {
                "numberValue": 369,
                "kind": "numberValue"
            }
        }
    },
    "languageCode": "en",
    "sessionId": "123456789"
}